<?xml version="1.0" encoding="utf-8"?>
<!DOCTYPE svg PUBLIC "-//W3C//DTD SVG 20010904//EN" "http://www.w3.org/TR/2001/REC-SVG-20010904/DTD/svg10.dtd">
<svg version="1.0" xmlns="http://www.w3.org/2000/svg" width="250px" height="100px" viewBox="0 0 250 100" preserveAspectRatio="xMidYMid meet">
 <g fill="#ffffff">
  <path d="M96 76.3 c-8.8 -3.2 -17.2 -13.1 -19.1 -22.6 -2.3 -11.3 3.1 -23.3 13.4 -29.9 4.5 -2.9 6.1 -3.3 13.3 -3.6 10.1 -0.5 16.4 1.9 22.5 8.5 5.8 6.4 7.9 11.4 7.9 19.8 0 8.3 -2 13.3 -7.7 19.5 -5.6 6.3 -12.1 9 -21.3 8.9 -4.1 0 -8.2 -0.3 -9 -0.6z m25.1 -29.6 c-1.6 -1.7 -2.3 -1.8 -3.5 -0.8 -1.4 1.2 -1.3 1.5 0.7 3.1 1.6 1.4 2.5 1.5 3.5 0.7 1.1 -0.8 0.9 -1.4 -0.7 -3z"/>
  <path d="M152.2 75.1 c-3.9 -2.5 -5.2 -2.6 -5.2 -0.6 0 1.1 -1.2 1.5 -4.5 1.5 l-4.5 0 0 -29 0 -29 5 0 5 0 0 10 c0 11 0.2 11.3 5.9 8.4 6.2 -3.1 14.2 0.2 17.7 7.3 2.8 5.5 2.7 20.5 -0.1 25.2 -4.3 7.4 -13 10.1 -19.3 6.2z m10.2 -8.3 c1.9 -2.7 2.2 -16.8 0.5 -20.1 -1.7 -3.1 -2.8 -3.7 -7.3 -3.7 -6.6 0 -7.6 1.7 -7.6 13.1 0 11.7 0.8 12.9 8 12.9 3.9 0 5.2 -0.4 6.4 -2.2z"/>
  <path d="M24 75.5 c0 -0.5 -10.1 -46.5 -11.5 -52.2 -0.5 -2.2 -0.2 -2.3 4.4 -2.3 l5 0 1 5.3 c2.1 10.6 6.1 31.7 6.1 32.2 0 0.3 0.6 0.5 1.3 0.5 0.9 0 2.6 -5.5 5.1 -16.7 5 -21.9 4.8 -21.3 9.1 -21.3 4.3 0 4 -0.7 9.1 21.7 2.1 9.5 4.4 17.3 4.9 17.3 0.6 0 2.7 -8.6 4.7 -19.1 2 -10.5 3.9 -19.3 4.1 -19.6 0.3 -0.2 2.5 -0.3 5 -0.1 l4.4 0.3 -6 27.3 -6 27.2 -5.3 0 -5.3 0 -4.2 -18 c-2.4 -9.9 -4.8 -18 -5.4 -18 -0.6 0 -3.1 8.1 -5.5 18 l-4.4 18 -5.3 0 c-2.9 0 -5.3 -0.2 -5.3 -0.5z"/>
  <path d="M187.1 73.8 c0.7 -1.3 4.1 -7.1 7.6 -13 3.4 -5.9 6.3 -11.4 6.3 -12.2 0 -0.9 -2.9 -6.4 -6.4 -12.3 -9.9 -16.9 -9.6 -15.3 -3.3 -15.3 l5.4 0 5 9.2 c2.7 5.1 5.6 9.4 6.4 9.5 0.9 0.2 3.3 -3.2 6.4 -8.9 l5 -9.3 5.3 -0.3 c2.8 -0.2 5.2 0 5.2 0.3 0 0.4 -3.4 6.5 -7.6 13.6 -4.5 7.6 -7.4 13.5 -7 14.4 0.3 0.9 3.7 6.9 7.6 13.5 3.8 6.5 7 12.1 7 12.4 0 0.3 -2.4 0.6 -5.2 0.6 l-5.3 0 -4.8 -9 c-3.2 -5.9 -5.4 -9 -6.5 -9 -1.1 0 -3.4 3.1 -6.5 9 l-4.8 9 -5.5 0 c-5.4 0 -5.4 0 -4.3 -2.2z"/>
 </g>
 <g fill="#f24c26">
  <path d="M97.1 63.6 c-5.6 -5.6 -6.3 -6.7 -5.1 -8.1 1.1 -1.4 1.5 -1.4 2.9 -0.1 1.5 1.4 2.5 0.7 10.6 -7.4 8.2 -8.2 8.8 -9.1 7.1 -10.3 -1.5 -1.1 -1.6 -1.5 -0.3 -2.5 1.1 -1 2.5 -0.1 7.5 4.4 9.3 8.4 9.3 8.8 -2.4 20.5 -6.1 6.1 -10.6 9.9 -11.9 9.9 -1.2 0 -4.7 -2.7 -8.4 -6.4z m15.8 -4.5 c3.8 -2.6 4.7 -4.7 3.1 -6.6 -1.2 -1.5 -1.6 -1.3 -3.7 1.4 -2 2.5 -3.2 3.1 -6.3 3.1 -4.8 0 -7.3 2.5 -3.9 3.9 3 1.2 7.7 0.5 10.8 -1.8z m-5.4 -9.1 c4.9 -4.9 8.6 -9.3 8.2 -9.7 -0.8 -0.7 -18.7 16.5 -18.7 17.9 0 1.9 2.1 0.3 10.5 -8.2z"/>
  <path d="M98 51 c0 -2 9.7 -11.6 10.7 -10.7 0.4 0.4 -1.9 3.3 -5 6.5 -3.3 3.3 -5.7 5 -5.7 4.2z"/>
 </g>
 <g fill="#182d40">
  <path d="M88.7 55.2 c-2.6 -2.6 -4.7 -5.7 -4.7 -6.8 0 -2.3 18.8 -21.4 21.1 -21.4 0.8 0 3.6 2.2 6.3 4.9 5.2 5.3 5.5 8.2 0.6 5.6 -11 -5.7 -23.1 6.1 -17.5 16.9 1.3 2.5 1.3 3.2 0.2 4.3 -1 1.1 -2.1 0.5 -6 -3.5z"/>
  <path d="M98 48.7 c0 -4.8 3.6 -8.7 8 -8.7 1.6 0 3 0.4 3 0.8 0 0.4 -2.5 3.2 -5.5 6.2 l-5.5 5.4 0 -3.7z"/>
 </g>
</svg>